<svg width="200px"  height="200px"  xmlns="http://www.w3.org/2000/svg" viewBox="0 0 100 100" preserveAspectRatio="xMidYMid" class="lds-ripple">
    <circle cx="50" cy="50" r="59.5841" fill="none" ng-attr-stroke="{{config.c1}}" ng-attr-stroke-width="{{config.width}}" stroke="#0D47A1" stroke-width="2">
      <animate attributeName="r" calcMode="spline" values="0;60" keyTimes="0;1" dur="2.8" keySplines="0 0.2 0.8 1" begin="-1.4s" repeatCount="indefinite"></animate>
      <animate attributeName="opacity" calcMode="spline" values="1;0" keyTimes="0;1" dur="2.8" keySplines="0.2 0 0.8 1" begin="-1.4s" repeatCount="indefinite"></animate>
    </circle>
    <circle cx="50" cy="50" r="36.82" fill="none" ng-attr-stroke="{{config.c2}}" ng-attr-stroke-width="{{config.width}}" stroke="#42A5F5" stroke-width="2">
      <animate attributeName="r" calcMode="spline" values="0;60" keyTimes="0;1" dur="2.8" keySplines="0 0.2 0.8 1" begin="0s" repeatCount="indefinite"></animate>
      <animate attributeName="opacity" calcMode="spline" values="1;0" keyTimes="0;1" dur="2.8" keySplines="0.2 0 0.8 1" begin="0s" repeatCount="indefinite"></animate>
    </circle>
  </svg>